<?xml version="1.0" encoding="utf-8"?>
<!-- Generator: Adobe Illustrator 14.0.0, SVG Export Plug-In . SVG Version: 6.00 Build 43363)  -->
<!DOCTYPE svg PUBLIC "-//W3C//DTD SVG 1.1//EN" "http://www.w3.org/Graphics/SVG/1.1/DTD/svg11.dtd">
<svg version="1.1" id="暠꿔_1" xmlns="http://www.w3.org/2000/svg" xmlns:xlink="http://www.w3.org/1999/xlink" x="0px" y="0px"
	 width="16px" height="15.988px" viewBox="0 0 16 15.988" enable-background="new 0 0 16 15.988" xml:space="preserve">
<g>
	<g>
		<path fill="#323031" d="M13.384,13.321c-0.051-0.116-0.187-0.17-0.303-0.116c-0.538,0.24-1.196,0.367-1.9,0.367
			c-0.981,0-2.017-0.249-2.994-0.72c-0.776-0.374-1.649-0.572-2.523-0.572c-1.357,0-2.601,0.465-3.414,1.275
			c-0.045,0.046-0.068,0.104-0.068,0.163s0.023,0.117,0.067,0.161c0.09,0.09,0.234,0.09,0.325,0c0.5-0.497,1.218-0.75,2.136-0.75
			c0.983,0,2.148,0.301,3.278,0.846c0.658,0.316,1.362,0.476,2.093,0.476c1.331,0,2.538-0.539,3.187-0.828
			c0.087-0.038,0.137-0.121,0.137-0.209C13.404,13.383,13.397,13.35,13.384,13.321z"/>
		<path fill="#3BB3E7" d="M12.23,14.962c-0.06-0.111-0.199-0.152-0.311-0.093c-0.336,0.185-0.863,0.284-1.479,0.284
			c-1.095,0-2.28-0.312-3.167-0.832C6.551,13.895,5.73,13.672,4.9,13.672c-1.131,0-2.133,0.428-2.749,1.174l-0.001,0.001H2.15
			c-0.025,0.031-0.04,0.066-0.048,0.103v0.001l0,0c0,0,0,0,0,0c-0.015,0.079,0.014,0.163,0.08,0.218
			c0.026,0.022,0.056,0.036,0.086,0.044l0,0.002c0.085,0.021,0.178-0.005,0.237-0.077c0.001-0.001,0.001-0.001,0.001-0.001
			c0.361-0.437,0.895-0.656,1.587-0.656c0.848,0,1.922,0.344,2.947,0.944c0.615,0.363,1.355,0.547,2.197,0.547
			c1.195,0,2.31-0.375,2.902-0.697c0.076-0.042,0.119-0.121,0.119-0.202C12.259,15.034,12.249,14.996,12.23,14.962z"/>
		<path fill="#323031" d="M10.017,0.985c0.077-0.104,0.123-0.232,0.123-0.373c0-0.351-0.283-0.634-0.635-0.634
			c-0.351,0-0.635,0.283-0.635,0.634c0,0.022,0.005,0.042,0.007,0.063C5.731,0.087,2.729,1.585,1.996,4.195
			C1.995,4.198,1.994,4.2,1.993,4.204L1.991,4.214C1.988,4.224,1.985,4.236,1.982,4.246C1.977,4.265,1.973,4.285,1.97,4.304
			C1.891,4.714,1.993,5.152,2.258,5.52C2.527,5.896,2.94,6.173,3.419,6.302c0.193,0.051,0.387,0.076,0.574,0.076
			c0.298,0,0.583-0.063,0.834-0.177C5.11,6.573,5.554,6.873,6.102,7.019c0.221,0.059,0.446,0.09,0.667,0.089
			c0.165,0,0.322-0.021,0.473-0.053l-1.477,5.507c-0.064,0.245,0.081,0.495,0.325,0.562c0.04,0.01,0.08,0.016,0.119,0.016
			c0.203,0,0.388-0.135,0.443-0.34l1.483-5.54c0.276,0.266,0.643,0.477,1.075,0.593c0.221,0.059,0.444,0.088,0.664,0.088
			c0.308,0,0.595-0.058,0.847-0.163c0.269,0.379,0.688,0.664,1.173,0.793c0.189,0.051,0.384,0.076,0.574,0.076
			c0.288,0,0.568-0.058,0.821-0.172c0.413-0.188,0.721-0.515,0.857-0.909c0.007-0.018,0.013-0.037,0.02-0.056
			c0.003-0.015,0.008-0.03,0.011-0.044c0-0.001,0-0.001,0-0.003C14.849,4.846,13.017,2.057,10.017,0.985z"/>
	</g>
	<path fill="#BCD75F" d="M5.426,5.084C5.423,5.096,5.421,5.11,5.417,5.124c-0.101,0.379,0.331,0.851,0.924,1.01
		C6.485,6.173,6.628,6.192,6.77,6.192c0.437,0,0.794-0.19,0.874-0.463c0.001-0.002,0.001-0.003,0.002-0.006l1.043-3.894
		C7.021,2.372,5.875,3.51,5.426,5.084z"/>
	<path fill="#FFFFFF" d="M3.655,5.416c-0.27-0.073-0.509-0.229-0.653-0.431C2.877,4.811,2.833,4.621,2.877,4.448
		c0.488-1.75,2.257-2.881,4.341-2.977c-1.355,0.751-2.293,1.934-2.7,3.455C4.51,4.956,4.505,4.985,4.503,5.014
		C4.484,5.125,4.48,5.237,4.488,5.346C4.263,5.462,3.959,5.497,3.655,5.416z"/>
	<path fill="#3BB3E7" d="M13.29,7.235c-0.046,0.172-0.181,0.316-0.377,0.405c-0.226,0.102-0.511,0.119-0.781,0.046
		c-0.296-0.079-0.548-0.259-0.689-0.482c0.063-0.09,0.117-0.184,0.156-0.287c0.012-0.027,0.022-0.056,0.031-0.086
		c0.408-1.52,0.187-3.013-0.612-4.341C12.774,3.613,13.74,5.477,13.29,7.235z"/>
	<path fill="#FFC10E" d="M8.53,5.936C8.529,5.943,8.526,5.949,8.524,5.957c-0.101,0.378,0.33,0.851,0.925,1.01
		c0.142,0.038,0.285,0.057,0.426,0.057c0.443,0,0.803-0.193,0.878-0.471c0.004-0.014,0.007-0.026,0.013-0.04
		c0.397-1.586-0.026-3.144-1.198-4.449L8.53,5.936z"/>
</g>
</svg>
